^C:\Users\BOSS\source\repos\Homework16\Homework16.vcxproj
C:\Users\BOSS\source\repos\Homework16\x64\Release\Homework16.ipdb
C:\Users\BOSS\source\repos\Homework16\x64\Release\Homework16.iobj
^C:\Users\BOSS\source\repos\Homework16\Homework16.vcxproj
C:\Users\BOSS\source\repos\Homework16\x64\Release\Homework16.ipdb
C:\Users\BOSS\source\repos\Homework16\x64\Release\Homework16.iobj
^C:\Users\BOSS\source\repos\Homework16\Homework16.vcxproj
C:\Users\BOSS\source\repos\Homework16\x64\Release\Homework16.ipdb
C:\Users\BOSS\source\repos\Homework16\x64\Release\Homework16.iobj
^C:\Users\BOSS\source\repos\Homework16\Homework16.vcxproj
C:\Users\BOSS\source\repos\Homework16\x64\Release\Homework16.ipdb
C:\Users\BOSS\source\repos\Homework16\x64\Release\Homework16.iobj
^C:\Users\BOSS\source\repos\Homework16\Homework16.vcxproj
C:\Users\BOSS\source\repos\Homework16\x64\Release\Homework16.ipdb
C:\Users\BOSS\source\repos\Homework16\x64\Release\Homework16.iobj
^C:\Users\BOSS\source\repos\Homework16\Homework16.vcxproj
C:\Users\BOSS\source\repos\Homework16\x64\Release\Homework16.ipdb
C:\Users\BOSS\source\repos\Homework16\x64\Release\Homework16.iobj
^C:\Users\BOSS\source\repos\Homework16\Homework16.vcxproj
C:\Users\BOSS\source\repos\Homework16\x64\Release\Homework16.ipdb
C:\Users\BOSS\source\repos\Homework16\x64\Release\Homework16.iobj
^C:\Users\BOSS\source\repos\Homework16\Homework16.vcxproj
C:\Users\BOSS\source\repos\Homework16\x64\Release\Homework16.ipdb
C:\Users\BOSS\source\repos\Homework16\x64\Release\Homework16.iobj
^C:\Users\BOSS\source\repos\Homework16\Homework16.vcxproj
C:\Users\BOSS\source\repos\Homework16\x64\Release\Homework16.ipdb
C:\Users\BOSS\source\repos\Homework16\x64\Release\Homework16.iobj
^C:\Users\BOSS\source\repos\Homework16\Homework16.vcxproj
C:\Users\BOSS\source\repos\Homework16\x64\Release\Homework16.ipdb
C:\Users\BOSS\source\repos\Homework16\x64\Release\Homework16.iobj
^C:\Users\BOSS\source\repos\Homework16\Homework16.vcxproj
C:\Users\BOSS\source\repos\Homework16\x64\Release\Homework16.ipdb
C:\Users\BOSS\source\repos\Homework16\x64\Release\Homework16.iobj
^C:\Users\BOSS\source\repos\Homework16\Homework16.vcxproj
C:\Users\BOSS\source\repos\Homework16\x64\Release\Homework16.ipdb
C:\Users\BOSS\source\repos\Homework16\x64\Release\Homework16.iobj
^C:\Users\BOSS\source\repos\Homework16\Homework16.vcxproj
C:\Users\BOSS\source\repos\Homework16\x64\Release\Homework16.ipdb
C:\Users\BOSS\source\repos\Homework16\x64\Release\Homework16.iobj
^C:\Users\BOSS\source\repos\Homework16\Homework16.vcxproj
C:\Users\BOSS\source\repos\Homework16\x64\Release\Homework16.ipdb
C:\Users\BOSS\source\repos\Homework16\x64\Release\Homework16.iobj
^C:\Users\BOSS\source\repos\Homework16\Homework16.vcxproj
C:\Users\BOSS\source\repos\Homework16\x64\Release\Homework16.ipdb
C:\Users\BOSS\source\repos\Homework16\x64\Release\Homework16.iobj
^C:\Users\BOSS\source\repos\Homework16\Homework16.vcxproj
C:\Users\BOSS\source\repos\Homework16\x64\Release\Homework16.ipdb
C:\Users\BOSS\source\repos\Homework16\x64\Release\Homework16.iobj
^C:\Users\BOSS\source\repos\Homework16\Homework16.vcxproj
C:\Users\BOSS\source\repos\Homework16\x64\Release\Homework16.ipdb
C:\Users\BOSS\source\repos\Homework16\x64\Release\Homework16.iobj
^C:\Users\BOSS\source\repos\Homework16\Homework16.vcxproj
C:\Users\BOSS\source\repos\Homework16\x64\Release\Homework16.ipdb
C:\Users\BOSS\source\repos\Homework16\x64\Release\Homework16.iobj
^C:\Users\BOSS\source\repos\Homework16\Homework16.vcxproj
C:\Users\BOSS\source\repos\Homework16\x64\Release\Homework16.ipdb
C:\Users\BOSS\source\repos\Homework16\x64\Release\Homework16.iobj
^C:\Users\BOSS\source\repos\Homework16\Homework16.vcxproj
C:\Users\BOSS\source\repos\Homework16\x64\Release\Homework16.ipdb
C:\Users\BOSS\source\repos\Homework16\x64\Release\Homework16.iobj
^C:\Users\BOSS\source\repos\Homework16\Homework16.vcxproj
C:\Users\BOSS\source\repos\Homework16\x64\Release\Homework16.ipdb
C:\Users\BOSS\source\repos\Homework16\x64\Release\Homework16.iobj
^C:\Users\BOSS\source\repos\Homework16\Homework16.vcxproj
C:\Users\BOSS\source\repos\Homework16\x64\Release\Homework16.ipdb
C:\Users\BOSS\source\repos\Homework16\x64\Release\Homework16.iobj
^C:\Users\BOSS\source\repos\Homework16\Homework16.vcxproj
C:\Users\BOSS\source\repos\Homework16\x64\Release\Homework16.ipdb
C:\Users\BOSS\source\repos\Homework16\x64\Release\Homework16.iobj
^C:\Users\BOSS\source\repos\Homework16\Homework16.vcxproj
C:\Users\BOSS\source\repos\Homework16\x64\Release\Homework16.ipdb
C:\Users\BOSS\source\repos\Homework16\x64\Release\Homework16.iobj
^C:\Users\BOSS\source\repos\Homework16\Homework16.vcxproj
C:\Users\BOSS\source\repos\Homework16\x64\Release\Homework16.ipdb
C:\Users\BOSS\source\repos\Homework16\x64\Release\Homework16.iobj
^C:\Users\BOSS\source\repos\Homework16\Homework16.vcxproj
C:\Users\BOSS\source\repos\Homework16\x64\Release\Homework16.ipdb
C:\Users\BOSS\source\repos\Homework16\x64\Release\Homework16.iobj
^C:\Users\BOSS\source\repos\Homework16\Homework16.vcxproj
C:\Users\BOSS\source\repos\Homework16\x64\Release\Homework16.ipdb
C:\Users\BOSS\source\repos\Homework16\x64\Release\Homework16.iobj
^C:\Users\BOSS\source\repos\Homework16\Homework16.vcxproj
C:\Users\BOSS\source\repos\Homework16\x64\Release\Homework16.ipdb
C:\Users\BOSS\source\repos\Homework16\x64\Release\Homework16.iobj
^C:\Users\BOSS\source\repos\Homework16\Homework16.vcxproj
C:\Users\BOSS\source\repos\Homework16\x64\Release\Homework16.ipdb
C:\Users\BOSS\source\repos\Homework16\x64\Release\Homework16.iobj
^C:\Users\BOSS\source\repos\Homework16\Homework16.vcxproj
C:\Users\BOSS\source\repos\Homework16\x64\Release\Homework16.ipdb
C:\Users\BOSS\source\repos\Homework16\x64\Release\Homework16.iobj
^C:\Users\BOSS\source\repos\Homework16\Homework16.vcxproj
C:\Users\BOSS\source\repos\Homework16\x64\Release\Homework16.ipdb
C:\Users\BOSS\source\repos\Homework16\x64\Release\Homework16.iobj
^C:\Users\BOSS\source\repos\Homework16\Homework16.vcxproj
C:\Users\BOSS\source\repos\Homework16\x64\Release\Homework16.ipdb
C:\Users\BOSS\source\repos\Homework16\x64\Release\Homework16.iobj
^C:\Users\BOSS\source\repos\Homework16\Homework16.vcxproj
C:\Users\BOSS\source\repos\Homework16\x64\Release\Homework16.ipdb
C:\Users\BOSS\source\repos\Homework16\x64\Release\Homework16.iobj
^C:\Users\BOSS\source\repos\Homework16\Homework16.vcxproj
C:\Users\BOSS\source\repos\Homework16\x64\Release\Homework16.ipdb
C:\Users\BOSS\source\repos\Homework16\x64\Release\Homework16.iobj
^C:\Users\BOSS\source\repos\Homework16\Homework16.vcxproj
C:\Users\BOSS\source\repos\Homework16\x64\Release\Homework16.ipdb
C:\Users\BOSS\source\repos\Homework16\x64\Release\Homework16.iobj
^C:\Users\BOSS\source\repos\Homework16\Homework16.vcxproj
C:\Users\BOSS\source\repos\Homework16\x64\Release\Homework16.ipdb
C:\Users\BOSS\source\repos\Homework16\x64\Release\Homework16.iobj
^C:\Users\BOSS\source\repos\Homework16\Homework16.vcxproj
C:\Users\BOSS\source\repos\Homework16\x64\Release\Homework16.ipdb
C:\Users\BOSS\source\repos\Homework16\x64\Release\Homework16.iobj
^C:\Users\BOSS\source\repos\Homework16\Homework16.vcxproj
C:\Users\BOSS\source\repos\Homework16\x64\Release\Homework16.ipdb
C:\Users\BOSS\source\repos\Homework16\x64\Release\Homework16.iobj
^C:\Users\BOSS\source\repos\Homework16\Homework16.vcxproj
C:\Users\BOSS\source\repos\Homework16\x64\Release\Homework16.ipdb
C:\Users\BOSS\source\repos\Homework16\x64\Release\Homework16.iobj
^C:\Users\BOSS\source\repos\Homework16\Homework16.vcxproj
C:\Users\BOSS\source\repos\Homework16\x64\Release\Homework16.ipdb
C:\Users\BOSS\source\repos\Homework16\x64\Release\Homework16.iobj
^C:\Users\BOSS\source\repos\Homework16\Homework16.vcxproj
C:\Users\BOSS\source\repos\Homework16\x64\Release\Homework16.ipdb
C:\Users\BOSS\source\repos\Homework16\x64\Release\Homework16.iobj
^C:\Users\BOSS\source\repos\Homework16\Homework16.vcxproj
C:\Users\BOSS\source\repos\Homework16\x64\Release\Homework16.ipdb
C:\Users\BOSS\source\repos\Homework16\x64\Release\Homework16.iobj
^C:\Users\BOSS\source\repos\Homework16\Homework16.vcxproj
C:\Users\BOSS\source\repos\Homework16\x64\Release\Homework16.ipdb
C:\Users\BOSS\source\repos\Homework16\x64\Release\Homework16.iobj
^C:\Users\BOSS\source\repos\Homework16\Homework16.vcxproj
C:\Users\BOSS\source\repos\Homework16\x64\Release\Homework16.ipdb
C:\Users\BOSS\source\repos\Homework16\x64\Release\Homework16.iobj
^C:\Users\BOSS\source\repos\Homework16\Homework16.vcxproj
C:\Users\BOSS\source\repos\Homework16\x64\Release\Homework16.ipdb
C:\Users\BOSS\source\repos\Homework16\x64\Release\Homework16.iobj
^C:\Users\BOSS\source\repos\Homework16\Homework16.vcxproj
C:\Users\BOSS\source\repos\Homework16\x64\Release\Homework16.ipdb
C:\Users\BOSS\source\repos\Homework16\x64\Release\Homework16.iobj
^C:\Users\BOSS\source\repos\Homework16\Homework16.vcxproj
C:\Users\BOSS\source\repos\Homework16\x64\Release\Homework16.ipdb
C:\Users\BOSS\source\repos\Homework16\x64\Release\Homework16.iobj
^C:\Users\BOSS\source\repos\Homework16\Homework16.vcxproj
C:\Users\BOSS\source\repos\Homework16\x64\Release\Homework16.ipdb
C:\Users\BOSS\source\repos\Homework16\x64\Release\Homework16.iobj
^C:\Users\BOSS\source\repos\Homework16\Homework16.vcxproj
C:\Users\BOSS\source\repos\Homework16\x64\Release\Homework16.ipdb
C:\Users\BOSS\source\repos\Homework16\x64\Release\Homework16.iobj
^C:\Users\BOSS\source\repos\Homework16\Homework16.vcxproj
C:\Users\BOSS\source\repos\Homework16\x64\Release\Homework16.ipdb
C:\Users\BOSS\source\repos\Homework16\x64\Release\Homework16.iobj
^C:\Users\BOSS\source\repos\Homework16\Homework16.vcxproj
C:\Users\BOSS\source\repos\Homework16\x64\Release\Homework16.ipdb
C:\Users\BOSS\source\repos\Homework16\x64\Release\Homework16.iobj
^C:\Users\BOSS\source\repos\Homework16\Homework16.vcxproj
C:\Users\BOSS\source\repos\Homework16\x64\Release\Homework16.ipdb
C:\Users\BOSS\source\repos\Homework16\x64\Release\Homework16.iobj
^C:\Users\BOSS\source\repos\Homework16\Homework16.vcxproj
C:\Users\BOSS\source\repos\Homework16\x64\Release\Homework16.ipdb
C:\Users\BOSS\source\repos\Homework16\x64\Release\Homework16.iobj
^C:\Users\BOSS\source\repos\Homework16\Homework16.vcxproj
C:\Users\BOSS\source\repos\Homework16\x64\Release\Homework16.ipdb
C:\Users\BOSS\source\repos\Homework16\x64\Release\Homework16.iobj
^C:\Users\BOSS\source\repos\Homework16\Homework16.vcxproj
C:\Users\BOSS\source\repos\Homework16\x64\Release\Homework16.ipdb
C:\Users\BOSS\source\repos\Homework16\x64\Release\Homework16.iobj
^C:\Users\BOSS\source\repos\Homework16\Homework16.vcxproj
C:\Users\BOSS\source\repos\Homework16\x64\Release\Homework16.ipdb
C:\Users\BOSS\source\repos\Homework16\x64\Release\Homework16.iobj
^C:\Users\BOSS\source\repos\Homework16\Homework16.vcxproj
C:\Users\BOSS\source\repos\Homework16\x64\Release\Homework16.ipdb
C:\Users\BOSS\source\repos\Homework16\x64\Release\Homework16.iobj
^C:\Users\BOSS\source\repos\Homework16\Homework16.vcxproj
C:\Users\BOSS\source\repos\Homework16\x64\Release\Homework16.ipdb
C:\Users\BOSS\source\repos\Homework16\x64\Release\Homework16.iobj
^C:\Users\BOSS\source\repos\Homework16\Homework16.vcxproj
C:\Users\BOSS\source\repos\Homework16\x64\Release\Homework16.ipdb
C:\Users\BOSS\source\repos\Homework16\x64\Release\Homework16.iobj
^C:\Users\BOSS\source\repos\Homework16\Homework16.vcxproj
C:\Users\BOSS\source\repos\Homework16\x64\Release\Homework16.ipdb
C:\Users\BOSS\source\repos\Homework16\x64\Release\Homework16.iobj
^C:\Users\BOSS\source\repos\Homework16\Homework16.vcxproj
C:\Users\BOSS\source\repos\Homework16\x64\Release\Homework16.ipdb
C:\Users\BOSS\source\repos\Homework16\x64\Release\Homework16.iobj
^C:\Users\BOSS\source\repos\Homework16\Homework16.vcxproj
C:\Users\BOSS\source\repos\Homework16\x64\Release\Homework16.ipdb
C:\Users\BOSS\source\repos\Homework16\x64\Release\Homework16.iobj
^C:\Users\BOSS\source\repos\Homework16\Homework16.vcxproj
C:\Users\BOSS\source\repos\Homework16\x64\Release\Homework16.ipdb
C:\Users\BOSS\source\repos\Homework16\x64\Release\Homework16.iobj
^C:\Users\BOSS\source\repos\Homework16\Homework16.vcxproj
C:\Users\BOSS\source\repos\Homework16\x64\Release\Homework16.ipdb
C:\Users\BOSS\source\repos\Homework16\x64\Release\Homework16.iobj
^C:\Users\BOSS\source\repos\Homework16\Homework16.vcxproj
C:\Users\BOSS\source\repos\Homework16\x64\Release\Homework16.ipdb
C:\Users\BOSS\source\repos\Homework16\x64\Release\Homework16.iobj
^C:\Users\BOSS\source\repos\Homework16\Homework16.vcxproj
C:\Users\BOSS\source\repos\Homework16\x64\Release\Homework16.ipdb
C:\Users\BOSS\source\repos\Homework16\x64\Release\Homework16.iobj
^C:\Users\BOSS\source\repos\Homework16\Homework16.vcxproj
C:\Users\BOSS\source\repos\Homework16\x64\Release\Homework16.ipdb
C:\Users\BOSS\source\repos\Homework16\x64\Release\Homework16.iobj
^C:\Users\BOSS\source\repos\Homework16\Homework16.vcxproj
C:\Users\BOSS\source\repos\Homework16\x64\Release\Homework16.ipdb
C:\Users\BOSS\source\repos\Homework16\x64\Release\Homework16.iobj
^C:\Users\BOSS\source\repos\Homework16\Homework16.vcxproj
C:\Users\BOSS\source\repos\Homework16\x64\Release\Homework16.ipdb
C:\Users\BOSS\source\repos\Homework16\x64\Release\Homework16.iobj
